ApsimVersion = 7.10 r4158
Title = 400ppm - irrigate 50mm +0C -- irrigate on date
           Date        Biomass          Yield  grain_protein     grain_size            esw      irrig_tot
   (dd/mm/yyyy)        (kg/ha)        (kg/ha)            (%)            (g)           (mm)           (mm)
     02/11/1973        11202.8         4293.1         15.097          0.041         81.656          0.000
     01/11/1975        12893.2         5093.3         12.473          0.040        111.544          0.000
