ApsimVersion = 7.10 r4158
Title = 400ppm - 30 iw+ -15rain -- irrigate on date
           Date        Biomass          Yield  grain_protein     grain_size            esw      irrig_tot
   (dd/mm/yyyy)        (kg/ha)        (kg/ha)            (%)            (g)           (mm)           (mm)
     24/10/1973         7392.2         2741.6         16.319          0.041        182.661          0.000
     22/10/1975         9912.0         3674.8         16.455          0.041        167.457          0.000
     29/09/1977        11760.0         4702.0         13.582          0.041        154.632          0.000
     07/10/1978         7864.1         3062.1         16.431          0.041        308.998          0.000
     04/10/1980        10022.9         4441.9         14.738          0.041         42.332          0.000
     12/10/1981        10879.9         4364.5         15.603          0.041        166.184          0.000
     02/10/1983         9133.2         3371.2         16.426          0.041        379.498          0.000
     03/11/1985        11872.7         4933.7         13.036          0.041        104.968          0.000
     27/10/1988         9947.5         3713.1         16.234          0.041        261.286          0.000
