ApsimVersion = 7.10 r4158
Title = 600ppm - 30 iw+ -15rain -- irrigate on swd 10 0 10
           Date        Biomass          Yield  grain_protein     grain_size            esw
   (dd/mm/yyyy)        (kg/ha)        (kg/ha)            (%)            (g)           (mm)
     24/10/1973        10229.0         3715.7         16.319          0.041        539.925
     22/10/1975        11590.9         4744.9         12.395          0.041        547.963
     29/09/1977        13028.7         4790.4         10.628          0.034        549.236
     07/10/1978         9925.3         4074.4         13.494          0.041        538.754
     03/10/1980        13266.8         4761.3         11.124          0.036        537.142
     03/10/1981        10461.3         4023.4         12.831          0.041        534.343
     02/10/1983        10828.9         4331.0         13.158          0.041        534.920
     03/11/1985        13845.0         5229.5         11.244          0.036        547.196
     27/10/1988        11642.6         4727.9         12.563          0.041        529.945
