ApsimVersion = 7.10 r4158
Title = 600ppm - +1C+ -15rain -- irrigate on date
           Date        Biomass          Yield  grain_protein     grain_size            esw      irrig_tot
   (dd/mm/yyyy)        (kg/ha)        (kg/ha)            (%)            (g)           (mm)           (mm)
     29/10/1973        12133.4         4494.0         14.861          0.041        139.034          0.000
     27/10/1975        13589.3         5229.2         12.182          0.038        187.308          0.000
     05/10/1977        15429.2         5313.8         11.675          0.032        145.275          0.000
