ApsimVersion = 7.10 r4158
Title = Continuous Wheat with Climate Change
           Date        Biomass          Yield  grain_protein     grain_size            esw
   (dd/mm/yyyy)        (kg/ha)        (kg/ha)            (%)            (g)           (mm)
     13/10/1969        12027.1         4391.7         16.094          0.041        395.553
     02/11/1973        10314.8         3911.9         16.413          0.041        310.092
     31/10/1975        11916.5         4670.7         13.665          0.041        341.880
     12/10/1977        12787.8         4928.7         12.552          0.034        278.949
     22/10/1978        11349.8         3986.1         16.423          0.041        499.615
     12/10/1980        11158.4         4501.3         13.481          0.035        276.167
     16/10/1981        11012.2         4623.6         13.787          0.041        346.994
     14/10/1983        11115.4         4472.3         13.897          0.041        426.457
     07/11/1984        12972.8         4982.5         12.047          0.036        337.143
     13/11/1985        12866.6         5222.8         12.470          0.038        299.642
     05/11/1988        11093.0         4399.2         13.987          0.041        326.508
     30/10/1989        12387.3         4334.6         14.148          0.028        292.712
